<?xml version="1.0" standalone="no"?>
<!DOCTYPE svg PUBLIC "-//W3C//DTD SVG 20010904//EN"
 "http://www.w3.org/TR/2001/REC-SVG-20010904/DTD/svg10.dtd">
<svg version="1.0" xmlns="http://www.w3.org/2000/svg"
 width="400.000000pt" height="400.000000pt" viewBox="0 0 400.000000 400.000000"
 preserveAspectRatio="xMidYMid meet">
<metadata>
Created by potrace 1.11, written by Peter Selinger 2001-2013
</metadata>
<g transform="translate(0.000000,400.000000) scale(0.100000,-0.100000)"
fill="#000000" stroke="none">
<path d="M1285 3970 c-22 -4 -59 -10 -83 -14 -117 -16 -323 -106 -436 -191
-134 -100 -287 -258 -373 -385 -192 -283 -260 -655 -182 -989 l19 -83 -36
-100 c-19 -54 -37 -107 -39 -116 -3 -9 -14 -48 -25 -87 -29 -98 -66 -270 -86
-405 -25 -159 -25 -498 -1 -625 61 -317 203 -557 432 -730 79 -61 278 -158
390 -191 77 -23 109 -27 225 -28 116 -1 145 2 204 22 209 70 374 215 505 446
75 130 105 205 104 260 0 44 -4 53 -36 82 -41 38 -91 54 -145 48 -46 -6 -53
-13 -93 -94 -165 -336 -399 -473 -685 -400 -321 82 -517 300 -578 645 -14 77
-16 384 -3 445 3 14 8 43 11 65 23 158 91 403 168 602 l39 103 -14 52 c-78
273 -63 554 41 777 56 122 153 241 261 323 31 24 58 46 61 49 15 17 104 70
163 97 235 109 526 104 832 -14 50 -19 94 -39 100 -45 15 -15 38 -11 147 26
120 40 311 83 413 93 140 14 315 5 423 -21 195 -49 322 -131 447 -292 194
-250 247 -460 182 -723 -21 -83 -99 -210 -185 -298 -113 -117 -226 -179 -459
-255 -164 -53 -199 -73 -230 -134 -20 -38 -20 -122 0 -160 32 -63 89 -98 156
-97 79 1 321 89 469 171 162 89 328 234 411 357 79 118 147 284 167 409 10 64
11 296 1 356 -10 62 -57 216 -95 310 -145 361 -405 603 -742 692 -131 35 -153
38 -335 42 -224 5 -413 -24 -646 -101 l-76 -25 -79 31 c-72 29 -250 79 -334
95 -55 10 -331 14 -375 5z"/>
<path d="M1360 2712 c-14 -2 -37 -13 -51 -23 -15 -10 -30 -19 -34 -19 -8 0
-36 -32 -74 -85 -27 -39 -65 -160 -55 -176 2 -5 21 1 42 13 146 82 322 87 433
12 55 -37 61 -31 44 41 -23 100 -90 190 -164 221 -37 15 -102 23 -141 16z"/>
<path d="M1295 1573 c-229 -51 -387 -218 -455 -483 -21 -78 1 -191 49 -258
121 -165 356 -168 476 -4 36 50 74 138 79 187 6 55 -29 95 -83 95 -44 0 -63
-17 -81 -75 -33 -105 -88 -157 -160 -148 -113 14 -145 101 -91 244 58 151 175
267 290 285 63 10 90 55 69 115 -8 23 -46 51 -66 48 -4 -1 -16 -3 -27 -6z"/>
</g>
</svg>
